analysis_az
…
## Rows: 10476 Columns: 35
## ── Column specification ────────────────────────────────────
## Delimiter: ","
## chr  (14): Data As Of, Jurisdiction of Occurrence, flag_sept, flag_diab, fla...
## dbl  (17): MMWR Year, MMWR Week, All Cause, Natural Cause, Septicemia (A40-A...
## lgl   (3): flag_allcause, flag_natcause, flag_neopl
## date  (1): Week Ending Date
## 
## ℹ Use `spec()` to retrieve the full column specification for this data.
## ℹ Specify the column types or set `show_col_types = FALSE` to quiet this message.

data

## # A tibble: 10,476 × 19
##    state          year month mmwr_week all_cause natural_cause septicemia
##    <chr>         <dbl> <dbl>     <dbl>     <dbl>         <dbl>      <dbl>
##  1 United States  2020     1         1     60179         55010        843
##  2 United States  2020     1         2     60735         55755        861
##  3 United States  2020     1         3     59363         54516        829
##  4 United States  2020     1         4     59162         54401        828
##  5 United States  2020     2         5     58834         54001        811
##  6 United States  2020     2         6     59491         54416        806
##  7 United States  2020     2         7     58815         53969        792
##  8 United States  2020     2         8     58912         53987        779
##  9 United States  2020     2         9     59334         54316        814
## 10 United States  2020     3        10     59716         54401        811
## # ℹ 10,466 more rows
## # ℹ 12 more variables: malignant_neoplasms <dbl>, diabetes_mellitus <dbl>,
## #   alzheimer_disease <dbl>, influenza_and_pneumonia <dbl>,
## #   chronic_lower_respiratory_diseases <dbl>, other_respiratory_diseases <dbl>,
## #   kidney_disease <dbl>, other_symptoms <dbl>, diseases_of_heart <dbl>,
## #   cerebrovascular_diseases <dbl>, covid_19_multiple <dbl>,
## #   covid_19_underlying <dbl>
…
