analysis_az
…
## Rows: 10476 Columns: 35
## ── Column specification ────────────────────────────────────────────────────────
## Delimiter: ","
## chr  (14): Data As Of, Jurisdiction of Occurrence, flag_sept, flag_diab, fla...
## dbl  (17): MMWR Year, MMWR Week, All Cause, Natural Cause, Septicemia (A40-A...
## lgl   (3): flag_allcause, flag_natcause, flag_neopl
## date  (1): Week Ending Date
## 
## ℹ Use `spec()` to retrieve the full column specification for this data.
## ℹ Specify the column types or set `show_col_types = FALSE` to quiet this message.

data

## # A tibble: 10,476 × 35
##    data_as_of jurisdiction_of_occurrence mmwr_year mmwr_week week_ending_date
##    <date>     <chr>                          <dbl>     <dbl> <date>          
##  1 2023-09-27 United States                   2020         1 2020-01-04      
##  2 2023-09-27 United States                   2020         2 2020-01-11      
##  3 2023-09-27 United States                   2020         3 2020-01-18      
##  4 2023-09-27 United States                   2020         4 2020-01-25      
##  5 2023-09-27 United States                   2020         5 2020-02-01      
##  6 2023-09-27 United States                   2020         6 2020-02-08      
##  7 2023-09-27 United States                   2020         7 2020-02-15      
##  8 2023-09-27 United States                   2020         8 2020-02-22      
##  9 2023-09-27 United States                   2020         9 2020-02-29      
## 10 2023-09-27 United States                   2020        10 2020-03-07      
## # ℹ 10,466 more rows
## # ℹ 30 more variables: all_cause <dbl>, natural_cause <dbl>,
## #   septicemia_a40_a41 <dbl>, malignant_neoplasms_c00_c97 <dbl>,
## #   diabetes_mellitus_e10_e14 <dbl>, alzheimer_disease_g30 <dbl>,
## #   influenza_and_pneumonia_j09_j18 <dbl>,
## #   chronic_lower_respiratory_diseases_j40_j47 <dbl>,
## #   other_diseases_of_respiratory_system_j00_j06_j30_j39_j67_j70_j98 <dbl>, …
…
