analysis_jz
…
## $ flag_natcause                                                                                 <lgl> …
## $ flag_sept                                                                                     <chr> …
## $ flag_neopl                                                                                    <lgl> …
## $ flag_diab                                                                                     <chr> …
## $ flag_alz                                                                                      <chr> …
## $ flag_inflpn                                                                                   <chr> …
## $ flag_clrd                                                                                     <chr> …
## $ flag_otherresp                                                                                <chr> …
## $ flag_nephr                                                                                    <chr> …
## $ flag_otherunk                                                                                 <chr> …
## $ flag_hd                                                                                       <chr> …
## $ flag_stroke                                                                                   <chr> …
## $ flag_cov19mcod                                                                                <chr> …
## $ flag_cov19ucod                                                                                <chr> …
## # A tibble: 1,940 × 35
##    data_as_of state mmwr_year mmwr_week week_ending_date all_cause natural_cause
##    <chr>      <chr>     <dbl>     <dbl> <date>               <dbl>         <dbl>
##  1 09/27/2023 New …      2020         1 2020-01-04             408           358
##  2 09/27/2023 New …      2020         2 2020-01-11             410           365
##  3 09/27/2023 New …      2020         3 2020-01-18             388           337
##  4 09/27/2023 New …      2020         4 2020-01-25             404           367
##  5 09/27/2023 New …      2020         5 2020-02-01             370           322
##  6 09/27/2023 New …      2020         6 2020-02-08             377           315
##  7 09/27/2023 New …      2020         7 2020-02-15             382           337
##  8 09/27/2023 New …      2020         8 2020-02-22             391           338
##  9 09/27/2023 New …      2020         9 2020-02-29             396           355
## 10 09/27/2023 New …      2020        10 2020-03-07             400           358
## # ℹ 1,930 more rows
## # ℹ 28 more variables: septicemia_a40_a41 <dbl>,
## #   malignant_neoplasms_c00_c97 <dbl>, diabetes_mellitus_e10_e14 <dbl>,
## #   alzheimer_disease_g30 <dbl>, influenza_and_pneumonia_j09_j18 <dbl>,
## #   chronic_lower_respiratory_diseases_j40_j47 <dbl>,
## #   other_diseases_of_respiratory_system_j00_j06_j30_j39_j67_j70_j98 <dbl>,
## #   nephritis_nephrotic_syndrome_and_nephrosis_n00_n07_n17_n19_n25_n27 <dbl>, …
…
